<?xml version="1.0" encoding="UTF-8" standalone="no"?>
<graphml xmlns="http://graphml.graphdrawing.org/xmlns" xmlns:xsi="http://www.w3.org/2001/XMLSchema-instance" xmlns:y="http://www.yworks.com/xml/graphml" xmlns:yed="http://www.yworks.com/xml/yed/3" xsi:schemaLocation="http://graphml.graphdrawing.org/xmlns http://www.yworks.com/xml/schema/graphml/1.1/ygraphml.xsd">
  <!--Created by yFiles for Java 2.11-->
  <key for="graphml" id="d0" yfiles.type="resources"/>
  <key for="port" id="d1" yfiles.type="portgraphics"/>
  <key for="port" id="d2" yfiles.type="portgeometry"/>
  <key for="port" id="d3" yfiles.type="portuserdata"/>
  <key attr.name="url" attr.type="string" for="node" id="d4"/>
  <key attr.name="description" attr.type="string" for="node" id="d5"/>
  <key for="node" id="d6" yfiles.type="nodegraphics"/>
  <key attr.name="Description" attr.type="string" for="graph" id="d7"/>
  <key attr.name="url" attr.type="string" for="edge" id="d8"/>
  <key attr.name="description" attr.type="string" for="edge" id="d9"/>
  <key for="edge" id="d10" yfiles.type="edgegraphics"/>
  <graph edgedefault="directed" id="G">
    <data key="d7"/>
    <node id="n0">
      <data key="d5"/>
      <data key="d6">
        <y:GenericNode configuration="com.yworks.entityRelationship.big_entity">
          <y:Geometry height="90.0" width="80.0" x="68.60245512143615" y="-9.430834213305161"/>
          <y:Fill color="#E8EEF7" color2="#B7C9E3" transparent="false"/>
          <y:BorderStyle color="#000000" type="line" width="1.0"/>
          <y:NodeLabel alignment="center" autoSizePolicy="content" backgroundColor="#B7C9E3" configuration="com.yworks.entityRelationship.label.name" fontFamily="Dialog" fontSize="12" fontStyle="plain" hasLineColor="false" height="17.40625" modelName="internal" modelPosition="t" textColor="#000000" visible="true" width="76.3046875" x="1.84765625" y="4.0">Репозиторий</y:NodeLabel>
          <y:NodeLabel alignment="left" autoSizePolicy="content" configuration="com.yworks.entityRelationship.label.attributes" fontFamily="Dialog" fontSize="12" fontStyle="plain" hasBackgroundColor="false" hasLineColor="false" height="57.625" modelName="custom" textColor="#000000" visible="true" width="66.876953125" x="2.0" y="29.40625">Название
Описание
Приоритет
Активность<y:LabelModel>
              <y:ErdAttributesNodeLabelModel/>
            </y:LabelModel>
            <y:ModelParameter>
              <y:ErdAttributesNodeLabelModelParameter/>
            </y:ModelParameter>
          </y:NodeLabel>
          <y:StyleProperties>
            <y:Property class="java.lang.Boolean" name="y.view.ShadowNodePainter.SHADOW_PAINTING" value="true"/>
          </y:StyleProperties>
        </y:GenericNode>
      </data>
    </node>
    <node id="n1">
      <data key="d5"/>
      <data key="d6">
        <y:GenericNode configuration="com.yworks.entityRelationship.big_entity">
          <y:Geometry height="90.0" width="80.0" x="280.5784582893348" y="-9.430834213305161"/>
          <y:Fill color="#E8EEF7" color2="#B7C9E3" transparent="false"/>
          <y:BorderStyle color="#000000" type="line" width="1.0"/>
          <y:NodeLabel alignment="center" autoSizePolicy="content" backgroundColor="#B7C9E3" configuration="com.yworks.entityRelationship.label.name" fontFamily="Dialog" fontSize="12" fontStyle="plain" hasLineColor="false" height="17.40625" modelName="internal" modelPosition="t" textColor="#000000" visible="true" width="50.1953125" x="14.90234375" y="4.0">Зеркало</y:NodeLabel>
          <y:NodeLabel alignment="left" autoSizePolicy="content" configuration="com.yworks.entityRelationship.label.attributes" fontFamily="Dialog" fontSize="12" fontStyle="plain" hasBackgroundColor="false" hasLineColor="false" height="30.8125" modelName="custom" textColor="#000000" visible="true" width="63.71875" x="2.0" y="29.40625">Адрес
Приоритет<y:LabelModel>
              <y:ErdAttributesNodeLabelModel/>
            </y:LabelModel>
            <y:ModelParameter>
              <y:ErdAttributesNodeLabelModelParameter/>
            </y:ModelParameter>
          </y:NodeLabel>
          <y:StyleProperties>
            <y:Property class="java.lang.Boolean" name="y.view.ShadowNodePainter.SHADOW_PAINTING" value="true"/>
          </y:StyleProperties>
        </y:GenericNode>
      </data>
    </node>
    <node id="n2">
      <data key="d5"/>
      <data key="d6">
        <y:GenericNode configuration="com.yworks.entityRelationship.big_entity">
          <y:Geometry height="90.0" width="89.0" x="276.0784582893348" y="234.7486800422388"/>
          <y:Fill color="#E8EEF7" color2="#B7C9E3" transparent="false"/>
          <y:BorderStyle color="#000000" type="line" width="1.0"/>
          <y:NodeLabel alignment="center" autoSizePolicy="content" backgroundColor="#B7C9E3" configuration="com.yworks.entityRelationship.label.name" fontFamily="Dialog" fontSize="12" fontStyle="plain" hasLineColor="false" height="17.40625" modelName="internal" modelPosition="t" textColor="#000000" visible="true" width="42.841796875" x="23.0791015625" y="4.0">Группа</y:NodeLabel>
          <y:NodeLabel alignment="left" autoSizePolicy="content" configuration="com.yworks.entityRelationship.label.attributes" fontFamily="Dialog" fontSize="12" fontStyle="plain" hasBackgroundColor="false" hasLineColor="false" height="30.8125" modelName="custom" textColor="#000000" visible="true" width="59.212890625" x="2.0" y="29.40625">Название
Описание<y:LabelModel>
              <y:ErdAttributesNodeLabelModel/>
            </y:LabelModel>
            <y:ModelParameter>
              <y:ErdAttributesNodeLabelModelParameter/>
            </y:ModelParameter>
          </y:NodeLabel>
          <y:StyleProperties>
            <y:Property class="java.lang.Boolean" name="y.view.ShadowNodePainter.SHADOW_PAINTING" value="true"/>
          </y:StyleProperties>
        </y:GenericNode>
      </data>
    </node>
    <node id="n3">
      <data key="d5"/>
      <data key="d6">
        <y:GenericNode configuration="com.yworks.entityRelationship.big_entity">
          <y:Geometry height="90.0" width="80.0" x="68.60245512143615" y="234.7486800422388"/>
          <y:Fill color="#E8EEF7" color2="#B7C9E3" transparent="false"/>
          <y:BorderStyle color="#000000" type="line" width="1.0"/>
          <y:NodeLabel alignment="center" autoSizePolicy="content" backgroundColor="#B7C9E3" configuration="com.yworks.entityRelationship.label.name" fontFamily="Dialog" fontSize="12" fontStyle="plain" hasLineColor="false" height="17.40625" modelName="internal" modelPosition="t" textColor="#000000" visible="true" width="36.71875" x="21.640625" y="4.0">Пакет</y:NodeLabel>
          <y:NodeLabel alignment="left" autoSizePolicy="content" configuration="com.yworks.entityRelationship.label.attributes" fontFamily="Dialog" fontSize="12" fontStyle="plain" hasBackgroundColor="false" hasLineColor="false" height="44.21875" modelName="custom" textColor="#000000" visible="true" width="59.212890625" x="2.0" y="29.40625">Название
Описание
Веб-сайт<y:LabelModel>
              <y:ErdAttributesNodeLabelModel/>
            </y:LabelModel>
            <y:ModelParameter>
              <y:ErdAttributesNodeLabelModelParameter/>
            </y:ModelParameter>
          </y:NodeLabel>
          <y:StyleProperties>
            <y:Property class="java.lang.Boolean" name="y.view.ShadowNodePainter.SHADOW_PAINTING" value="true"/>
          </y:StyleProperties>
        </y:GenericNode>
      </data>
    </node>
    <node id="n4">
      <data key="d5"/>
      <data key="d6">
        <y:GenericNode configuration="com.yworks.entityRelationship.big_entity">
          <y:Geometry height="179.0" width="156.0" x="-154.84298277455105" y="70.55137110612436"/>
          <y:Fill color="#E8EEF7" color2="#B7C9E3" transparent="false"/>
          <y:BorderStyle color="#000000" type="line" width="1.0"/>
          <y:NodeLabel alignment="center" autoSizePolicy="content" backgroundColor="#B7C9E3" configuration="com.yworks.entityRelationship.label.name" fontFamily="Dialog" fontSize="12" fontStyle="plain" hasLineColor="false" height="17.40625" modelName="internal" modelPosition="t" textColor="#000000" visible="true" width="85.15234375" x="35.423828125" y="4.0">Версия пакета</y:NodeLabel>
          <y:NodeLabel alignment="left" autoSizePolicy="content" configuration="com.yworks.entityRelationship.label.attributes" fontFamily="Dialog" fontSize="12" fontStyle="plain" hasBackgroundColor="false" hasLineColor="false" height="97.84375" modelName="custom" textColor="#000000" visible="true" width="138.75390625" x="2.0" y="29.40625">Менеджер
Версия
Время создания
Лицензия
Контрольные суммы
Размеры
Название файла пакета<y:LabelModel>
              <y:ErdAttributesNodeLabelModel/>
            </y:LabelModel>
            <y:ModelParameter>
              <y:ErdAttributesNodeLabelModelParameter/>
            </y:ModelParameter>
          </y:NodeLabel>
          <y:StyleProperties>
            <y:Property class="java.lang.Boolean" name="y.view.ShadowNodePainter.SHADOW_PAINTING" value="true"/>
          </y:StyleProperties>
        </y:GenericNode>
      </data>
    </node>
    <node id="n5">
      <data key="d5"/>
      <data key="d6">
        <y:GenericNode configuration="com.yworks.entityRelationship.big_entity">
          <y:Geometry height="90.0" width="80.0" x="-60.61317812829975" y="-107.76330682418185"/>
          <y:Fill color="#E8EEF7" color2="#B7C9E3" transparent="false"/>
          <y:BorderStyle color="#000000" type="line" width="1.0"/>
          <y:NodeLabel alignment="center" autoSizePolicy="content" backgroundColor="#B7C9E3" configuration="com.yworks.entityRelationship.label.name" fontFamily="Dialog" fontSize="12" fontStyle="plain" hasLineColor="false" height="17.40625" modelName="internal" modelPosition="t" textColor="#000000" visible="true" width="73.64453125" x="3.177734375" y="4.0">Архитектура</y:NodeLabel>
          <y:NodeLabel alignment="left" autoSizePolicy="content" configuration="com.yworks.entityRelationship.label.attributes" fontFamily="Dialog" fontSize="12" fontStyle="plain" hasBackgroundColor="false" hasLineColor="false" height="17.40625" modelName="custom" textColor="#000000" visible="true" width="57.89453125" x="2.0" y="29.40625">Название<y:LabelModel>
              <y:ErdAttributesNodeLabelModel/>
            </y:LabelModel>
            <y:ModelParameter>
              <y:ErdAttributesNodeLabelModelParameter/>
            </y:ModelParameter>
          </y:NodeLabel>
          <y:StyleProperties>
            <y:Property class="java.lang.Boolean" name="y.view.ShadowNodePainter.SHADOW_PAINTING" value="true"/>
          </y:StyleProperties>
        </y:GenericNode>
      </data>
    </node>
    <node id="n6">
      <data key="d5"/>
      <data key="d6">
        <y:GenericNode configuration="com.yworks.entityRelationship.big_entity">
          <y:Geometry height="100.40000000000009" width="131.20000000000002" x="-142.44298277455104" y="331.81029402059113"/>
          <y:Fill color="#E8EEF7" color2="#B7C9E3" transparent="false"/>
          <y:BorderStyle color="#000000" type="line" width="1.0"/>
          <y:NodeLabel alignment="center" autoSizePolicy="content" backgroundColor="#B7C9E3" configuration="com.yworks.entityRelationship.label.name" fontFamily="Dialog" fontSize="12" fontStyle="plain" hasLineColor="false" height="17.40625" modelName="internal" modelPosition="t" textColor="#000000" visible="true" width="76.375" x="27.41250000000001" y="4.0">Зависимость</y:NodeLabel>
          <y:NodeLabel alignment="left" autoSizePolicy="content" configuration="com.yworks.entityRelationship.label.attributes" fontFamily="Dialog" fontSize="12" fontStyle="plain" hasBackgroundColor="false" hasLineColor="false" height="30.8125" modelName="custom" textColor="#000000" visible="true" width="119.60546875" x="2.0" y="29.40625">Тип
Ограничения версии<y:LabelModel>
              <y:ErdAttributesNodeLabelModel/>
            </y:LabelModel>
            <y:ModelParameter>
              <y:ErdAttributesNodeLabelModelParameter/>
            </y:ModelParameter>
          </y:NodeLabel>
          <y:StyleProperties>
            <y:Property class="java.lang.Boolean" name="y.view.ShadowNodePainter.SHADOW_PAINTING" value="true"/>
          </y:StyleProperties>
        </y:GenericNode>
      </data>
    </node>
    <node id="n7">
      <data key="d5"/>
      <data key="d6">
        <y:GenericNode configuration="com.yworks.entityRelationship.big_entity">
          <y:Geometry height="90.0" width="80.0" x="-170.61317812829975" y="-107.76330682418185"/>
          <y:Fill color="#E8EEF7" color2="#B7C9E3" transparent="false"/>
          <y:BorderStyle color="#000000" type="line" width="1.0"/>
          <y:NodeLabel alignment="center" autoSizePolicy="content" backgroundColor="#B7C9E3" configuration="com.yworks.entityRelationship.label.name" fontFamily="Dialog" fontSize="12" fontStyle="plain" hasLineColor="false" height="17.40625" modelName="internal" modelPosition="t" textColor="#000000" visible="true" width="33.501953125" x="23.2490234375" y="4.0">Файл</y:NodeLabel>
          <y:NodeLabel alignment="left" autoSizePolicy="content" configuration="com.yworks.entityRelationship.label.attributes" fontFamily="Dialog" fontSize="12" fontStyle="plain" hasBackgroundColor="false" hasLineColor="false" height="17.40625" modelName="custom" textColor="#000000" visible="true" width="30.373046875" x="2.0" y="29.40625">Путь<y:LabelModel>
              <y:ErdAttributesNodeLabelModel/>
            </y:LabelModel>
            <y:ModelParameter>
              <y:ErdAttributesNodeLabelModelParameter/>
            </y:ModelParameter>
          </y:NodeLabel>
          <y:StyleProperties>
            <y:Property class="java.lang.Boolean" name="y.view.ShadowNodePainter.SHADOW_PAINTING" value="true"/>
          </y:StyleProperties>
        </y:GenericNode>
      </data>
    </node>
    <node id="n8">
      <data key="d5"/>
      <data key="d6">
        <y:GenericNode configuration="com.yworks.entityRelationship.big_entity">
          <y:Geometry height="90.0" width="150.623560718057" x="139.87426929388823" y="-165.82528435672432"/>
          <y:Fill color="#E8EEF7" color2="#B7C9E3" transparent="false"/>
          <y:BorderStyle color="#000000" type="line" width="1.0"/>
          <y:NodeLabel alignment="center" autoSizePolicy="content" backgroundColor="#B7C9E3" configuration="com.yworks.entityRelationship.label.name" fontFamily="Dialog" fontSize="12" fontStyle="plain" hasLineColor="false" height="17.40625" modelName="internal" modelPosition="t" textColor="#000000" visible="true" width="124.298828125" x="13.16236629652849" y="4.0">Зеркало репозитория</y:NodeLabel>
          <y:NodeLabel alignment="left" autoSizePolicy="content" configuration="com.yworks.entityRelationship.label.attributes" fontFamily="Dialog" fontSize="12" fontStyle="plain" hasBackgroundColor="false" hasLineColor="false" height="17.40625" modelName="custom" textColor="#000000" visible="true" width="63.71875" x="2.0" y="29.40625">Приоритет<y:LabelModel>
              <y:ErdAttributesNodeLabelModel/>
            </y:LabelModel>
            <y:ModelParameter>
              <y:ErdAttributesNodeLabelModelParameter/>
            </y:ModelParameter>
          </y:NodeLabel>
          <y:StyleProperties>
            <y:Property class="java.lang.Boolean" name="y.view.ShadowNodePainter.SHADOW_PAINTING" value="true"/>
          </y:StyleProperties>
        </y:GenericNode>
      </data>
    </node>
    <edge id="e0" source="n2" target="n3">
      <data key="d9"/>
      <data key="d10">
        <y:PolyLineEdge>
          <y:Path sx="0.0" sy="0.0" tx="0.0" ty="0.0"/>
          <y:LineStyle color="#000000" type="line" width="1.0"/>
          <y:Arrows source="crows_foot_many_optional" target="crows_foot_many_optional"/>
          <y:EdgeLabel alignment="center" configuration="AutoFlippingLabel" distance="2.0" fontFamily="Dialog" fontSize="12" fontStyle="plain" hasBackgroundColor="false" hasLineColor="false" height="17.40625" modelName="custom" preferredPlacement="anywhere" ratio="0.5" textColor="#000000" visible="true" width="56.751953125" x="-92.13317610711454" y="-38.703132701901836">состоит в<y:LabelModel>
              <y:SmartEdgeLabelModel autoRotationEnabled="false" defaultAngle="0.0" defaultDistance="10.0"/>
            </y:LabelModel>
            <y:ModelParameter>
              <y:SmartEdgeLabelModelParameter angle="0.0" distance="30.0" distanceToCenter="true" position="right" ratio="0.5" segment="0"/>
            </y:ModelParameter>
            <y:PreferredPlacementDescriptor angle="0.0" angleOffsetOnRightSide="0" angleReference="absolute" angleRotationOnRightSide="co" distance="-1.0" frozen="true" placement="anywhere" side="anywhere" sideReference="relative_to_edge_flow"/>
          </y:EdgeLabel>
          <y:BendStyle smoothed="false"/>
        </y:PolyLineEdge>
      </data>
    </edge>
    <edge id="e1" source="n0" target="n4">
      <data key="d9"/>
      <data key="d10">
        <y:PolyLineEdge>
          <y:Path sx="0.0" sy="0.0" tx="3.986087746829611" ty="-44.670499482247095">
            <y:Point x="108.60245512143615" y="115.38087162387725"/>
          </y:Path>
          <y:LineStyle color="#000000" type="line" width="1.0"/>
          <y:Arrows source="crows_foot_one_mandatory" target="crows_foot_many_optional"/>
          <y:EdgeLabel alignment="center" configuration="AutoFlippingLabel" distance="2.0" fontFamily="Dialog" fontSize="12" fontStyle="plain" hasBackgroundColor="false" hasLineColor="false" height="17.40625" modelName="custom" preferredPlacement="anywhere" ratio="0.5" textColor="#000000" visible="true" width="79.45703125" x="16.253575170369913" y="14.469876022211139">содержится в<y:LabelModel>
              <y:SmartEdgeLabelModel autoRotationEnabled="false" defaultAngle="0.0" defaultDistance="10.0"/>
            </y:LabelModel>
            <y:ModelParameter>
              <y:SmartEdgeLabelModelParameter angle="6.283185307179586" distance="55.98209081309392" distanceToCenter="true" position="left" ratio="0.44914778293175184" segment="0"/>
            </y:ModelParameter>
            <y:PreferredPlacementDescriptor angle="0.0" angleOffsetOnRightSide="0" angleReference="absolute" angleRotationOnRightSide="co" distance="-1.0" frozen="true" placement="anywhere" side="anywhere" sideReference="relative_to_edge_flow"/>
          </y:EdgeLabel>
          <y:BendStyle smoothed="false"/>
        </y:PolyLineEdge>
      </data>
    </edge>
    <edge id="e2" source="n3" target="n4">
      <data key="d9"/>
      <data key="d10">
        <y:PolyLineEdge>
          <y:Path sx="0.0" sy="0.0" tx="14.715279177663916" ty="34.42475289717004">
            <y:Point x="108.60245512143615" y="194.4761240032944"/>
          </y:Path>
          <y:LineStyle color="#000000" type="line" width="1.0"/>
          <y:Arrows source="crows_foot_one_mandatory" target="crows_foot_many_optional"/>
          <y:EdgeLabel alignment="center" configuration="AutoFlippingLabel" distance="2.0" fontFamily="Dialog" fontSize="12" fontStyle="plain" hasBackgroundColor="false" hasLineColor="false" height="17.40625" modelName="custom" preferredPlacement="anywhere" ratio="0.5" textColor="#000000" visible="true" width="104.177734375" x="7.481819172811868" y="-41.64469708712994">является версией<y:LabelModel>
              <y:SmartEdgeLabelModel autoRotationEnabled="false" defaultAngle="0.0" defaultDistance="10.0"/>
            </y:LabelModel>
            <y:ModelParameter>
              <y:SmartEdgeLabelModelParameter angle="6.283185307179586" distance="59.57068637803588" distanceToCenter="true" position="right" ratio="0.7244429560924892" segment="0"/>
            </y:ModelParameter>
            <y:PreferredPlacementDescriptor angle="0.0" angleOffsetOnRightSide="0" angleReference="absolute" angleRotationOnRightSide="co" distance="-1.0" frozen="true" placement="anywhere" side="anywhere" sideReference="relative_to_edge_flow"/>
          </y:EdgeLabel>
          <y:BendStyle smoothed="false"/>
        </y:PolyLineEdge>
      </data>
    </edge>
    <edge id="e3" source="n1" target="n8">
      <data key="d9"/>
      <data key="d10">
        <y:PolyLineEdge>
          <y:Path sx="0.0" sy="0.0" tx="0.0" ty="0.0">
            <y:Point x="320.5784582893348" y="-120.82528435672432"/>
          </y:Path>
          <y:LineStyle color="#000000" type="line" width="1.0"/>
          <y:Arrows source="crows_foot_one_mandatory" target="crows_foot_many_mandatory"/>
          <y:EdgeLabel alignment="center" configuration="AutoFlippingLabel" distance="2.0" fontFamily="Dialog" fontSize="12" fontStyle="plain" hasBackgroundColor="false" hasLineColor="false" height="17.40625" modelName="custom" preferredPlacement="anywhere" ratio="0.5" rotationAngle="90.0" textColor="#000000" visible="true" width="44.576171875" x="21.2968725959754" y="-91.61249436649668">держит<y:LabelModel>
              <y:SmartEdgeLabelModel autoRotationEnabled="false" defaultAngle="0.0" defaultDistance="10.0"/>
            </y:LabelModel>
            <y:ModelParameter>
              <y:SmartEdgeLabelModelParameter angle="0.0" distance="30.0" distanceToCenter="true" position="right" ratio="0.5" segment="0"/>
            </y:ModelParameter>
            <y:PreferredPlacementDescriptor angle="0.0" angleOffsetOnRightSide="0" angleReference="absolute" angleRotationOnRightSide="co" distance="-1.0" frozen="true" placement="anywhere" side="anywhere" sideReference="relative_to_edge_flow"/>
          </y:EdgeLabel>
          <y:BendStyle smoothed="false"/>
        </y:PolyLineEdge>
      </data>
    </edge>
    <edge id="e4" source="n0" target="n8">
      <data key="d9"/>
      <data key="d10">
        <y:PolyLineEdge>
          <y:Path sx="0.0" sy="0.0" tx="0.0" ty="0.0">
            <y:Point x="108.60245512143615" y="-120.82528435672432"/>
          </y:Path>
          <y:LineStyle color="#000000" type="line" width="1.0"/>
          <y:Arrows source="crows_foot_one_mandatory" target="crows_foot_many_mandatory"/>
          <y:EdgeLabel alignment="center" configuration="AutoFlippingLabel" distance="2.0" fontFamily="Dialog" fontSize="12" fontStyle="plain" hasBackgroundColor="false" hasLineColor="false" height="17.40625" modelName="custom" preferredPlacement="anywhere" ratio="0.5" rotationAngle="90.0" textColor="#000000" visible="true" width="87.736328125" x="-38.70312501772402" y="-123.98261155399668">предоставляет<y:LabelModel>
              <y:SmartEdgeLabelModel autoRotationEnabled="false" defaultAngle="0.0" defaultDistance="10.0"/>
            </y:LabelModel>
            <y:ModelParameter>
              <y:SmartEdgeLabelModelParameter angle="0.0" distance="30.0" distanceToCenter="true" position="left" ratio="0.5" segment="0"/>
            </y:ModelParameter>
            <y:PreferredPlacementDescriptor angle="0.0" angleOffsetOnRightSide="0" angleReference="absolute" angleRotationOnRightSide="co" distance="-1.0" frozen="true" placement="anywhere" side="anywhere" sideReference="relative_to_edge_flow"/>
          </y:EdgeLabel>
          <y:BendStyle smoothed="false"/>
        </y:PolyLineEdge>
      </data>
    </edge>
    <edge id="e5" source="n6" target="n4">
      <data key="d9"/>
      <data key="d10">
        <y:PolyLineEdge>
          <y:Path sx="-46.84106551339845" sy="21.42997347062476" tx="-46.84106551339843" ty="-12.69328312916386"/>
          <y:LineStyle color="#000000" type="line" width="1.0"/>
          <y:Arrows source="crows_foot_one_mandatory" target="crows_foot_many_optional"/>
          <y:EdgeLabel alignment="center" configuration="AutoFlippingLabel" distance="2.0" fontFamily="Dialog" fontSize="12" fontStyle="plain" hasBackgroundColor="false" hasLineColor="false" height="17.40625" modelName="custom" preferredPlacement="anywhere" ratio="0.5" textColor="#000000" visible="true" width="37.955078125" x="11.022464163222423" y="-49.84583979992351">нужен<y:LabelModel>
              <y:SmartEdgeLabelModel autoRotationEnabled="false" defaultAngle="0.0" defaultDistance="10.0"/>
            </y:LabelModel>
            <y:ModelParameter>
              <y:SmartEdgeLabelModelParameter angle="0.0" distance="30.0" distanceToCenter="true" position="right" ratio="0.5" segment="0"/>
            </y:ModelParameter>
            <y:PreferredPlacementDescriptor angle="0.0" angleOffsetOnRightSide="0" angleReference="absolute" angleRotationOnRightSide="co" distance="-1.0" frozen="true" placement="anywhere" side="anywhere" sideReference="relative_to_edge_flow"/>
          </y:EdgeLabel>
          <y:BendStyle smoothed="false"/>
        </y:PolyLineEdge>
      </data>
    </edge>
    <edge id="e6" source="n6" target="n4">
      <data key="d9"/>
      <data key="d10">
        <y:PolyLineEdge>
          <y:Path sx="45.601156239505414" sy="3.0563641781221236" tx="45.60115623950543" ty="-4.6548290636939385"/>
          <y:LineStyle color="#000000" type="line" width="1.0"/>
          <y:Arrows source="crows_foot_many_optional" target="crows_foot_one_mandatory"/>
          <y:EdgeLabel alignment="center" configuration="AutoFlippingLabel" distance="2.0" fontFamily="Dialog" fontSize="12" fontStyle="plain" hasBackgroundColor="false" hasLineColor="false" height="17.40625" modelName="custom" preferredPlacement="anywhere" ratio="0.5" textColor="#000000" visible="true" width="50.20703125" x="4.89648485106278" y="-49.84876948742351">зависим<y:LabelModel>
              <y:SmartEdgeLabelModel autoRotationEnabled="false" defaultAngle="0.0" defaultDistance="10.0"/>
            </y:LabelModel>
            <y:ModelParameter>
              <y:SmartEdgeLabelModelParameter angle="0.0" distance="30.0" distanceToCenter="true" position="right" ratio="0.5" segment="0"/>
            </y:ModelParameter>
            <y:PreferredPlacementDescriptor angle="0.0" angleOffsetOnRightSide="0" angleReference="absolute" angleRotationOnRightSide="co" distance="-1.0" frozen="true" placement="anywhere" side="anywhere" sideReference="relative_to_edge_flow"/>
          </y:EdgeLabel>
          <y:BendStyle smoothed="false"/>
        </y:PolyLineEdge>
      </data>
    </edge>
    <edge id="e7" source="n7" target="n4">
      <data key="d9"/>
      <data key="d10">
        <y:PolyLineEdge>
          <y:Path sx="0.0" sy="0.0" tx="-53.770195353748704" ty="8.971741158058677"/>
          <y:LineStyle color="#000000" type="line" width="1.0"/>
          <y:Arrows source="crows_foot_many_optional" target="crows_foot_one_mandatory"/>
          <y:EdgeLabel alignment="center" configuration="AutoFlippingLabel" distance="2.0" fontFamily="Dialog" fontSize="12" fontStyle="plain" hasBackgroundColor="false" hasLineColor="false" height="17.40625" modelName="custom" preferredPlacement="anywhere" ratio="0.5" textColor="#000000" visible="true" width="62.58203125" x="-80.23880389771654" y="34.863901345209435">состоит из<y:LabelModel>
              <y:SmartEdgeLabelModel autoRotationEnabled="false" defaultAngle="0.0" defaultDistance="10.0"/>
            </y:LabelModel>
            <y:ModelParameter>
              <y:SmartEdgeLabelModelParameter angle="6.283185307179586" distance="48.94778458289335" distanceToCenter="true" position="right" ratio="0.4905731388922447" segment="-1"/>
            </y:ModelParameter>
            <y:PreferredPlacementDescriptor angle="0.0" angleOffsetOnRightSide="0" angleReference="absolute" angleRotationOnRightSide="co" distance="-1.0" frozen="true" placement="anywhere" side="anywhere" sideReference="relative_to_edge_flow"/>
          </y:EdgeLabel>
          <y:BendStyle smoothed="false"/>
        </y:PolyLineEdge>
      </data>
    </edge>
    <edge id="e8" source="n5" target="n4">
      <data key="d9"/>
      <data key="d10">
        <y:PolyLineEdge>
          <y:Path sx="0.0" sy="0.0" tx="56.229804646251296" ty="-68.5419230446868"/>
          <y:LineStyle color="#000000" type="line" width="1.0"/>
          <y:Arrows source="crows_foot_one_mandatory" target="crows_foot_many_optional"/>
          <y:EdgeLabel alignment="center" configuration="AutoFlippingLabel" distance="2.0" fontFamily="Dialog" fontSize="12" fontStyle="plain" hasBackgroundColor="false" hasLineColor="false" height="17.40625" modelName="custom" preferredPlacement="anywhere" ratio="0.5" textColor="#000000" visible="true" width="67.357421875" x="-84.34902126669135" y="34.87126371093209">собран для<y:LabelModel>
              <y:SmartEdgeLabelModel autoRotationEnabled="false" defaultAngle="0.0" defaultDistance="10.0"/>
            </y:LabelModel>
            <y:ModelParameter>
              <y:SmartEdgeLabelModelParameter angle="6.283185307179586" distance="50.67031045406542" distanceToCenter="true" position="right" ratio="0.4905731388922447" segment="-1"/>
            </y:ModelParameter>
            <y:PreferredPlacementDescriptor angle="0.0" angleOffsetOnRightSide="0" angleReference="absolute" angleRotationOnRightSide="co" distance="-1.0" frozen="true" placement="anywhere" side="anywhere" sideReference="relative_to_edge_flow"/>
          </y:EdgeLabel>
          <y:BendStyle smoothed="false"/>
        </y:PolyLineEdge>
      </data>
    </edge>
  </graph>
  <data key="d0">
    <y:Resources/>
  </data>
</graphml>
